…
## US 2016 Presidential Election Data

US 2016 Presidential Election data is also available now:

```{r}
library(pinnacle.data)
USA_Election_2016

# A tibble: 1,443 × 5
       EnteredDateTime      TeamName1    TeamName2 MoneyUS1 MoneyUS2
                <dttm>          <chr>        <chr>    <dbl>    <dbl>
1  2016-07-18 09:34:38 Hilary Clinton Donald Trump     -243      212
2  2016-07-18 19:15:42 Hilary Clinton Donald Trump     -251      218
3  2016-07-19 04:49:41 Hilary Clinton Donald Trump     -260      226
4  2016-07-19 21:48:05 Hilary Clinton Donald Trump     -281      243
5  2016-07-21 17:47:46 Hilary Clinton Donald Trump     -275      238
6  2016-07-21 20:09:50 Hilary Clinton Donald Trump     -271      235
7  2016-07-21 20:36:35 Hilary Clinton Donald Trump     -253      220
8  2016-07-21 20:37:24 Hilary Clinton Donald Trump     -237      207
9  2016-07-21 20:49:05 Hilary Clinton Donald Trump     -233      204
10 2016-07-21 20:55:19 Hilary Clinton Donald Trump     -252      219
# ... with 1,433 more rows
```
…
